10.24 10.29 11.80 0.16 -0.20 0.120 0.070 -0.037 0.134 0.078 -0.041 1.09
10.56 10.63 11.73 0.13 -0.17 0.297 0.140 -0.076 0.351 0.165 -0.089 1.11
10.85 10.94 12.15 0.08 -0.10 0.218 0.054 -0.037 0.265 0.065 -0.046 1.18
11.10 11.18 12.61 0.10 -0.11 0.136 0.038 -0.028 0.164 0.045 -0.034 1.29
11.28 11.35 12.69 0.19 -0.25 0.169 0.128 -0.059 0.200 0.152 -0.070 1.45
11.47 11.54 12.79 0.43 -1.01 0.206 1.908 -0.129 0.243 2.247 -0.152 1.42
11.68 11.69 12.79 0.58 -2.23 0.338 57.069 -0.250 0.346 58.399 -0.256 1.57
