#blue up, middel, down
23634052331.700623, 1104706086622.0684, 968268643784.5885, 802063767911.0134
32628968106.491188, 1358977960927.5012, 1191136505080.7268, 1005433292956.3497
46141524435.9614, 1752366018871.4966, 1535938915386.269, 1327360967039.026
65152198072.79016, 2207058582883.747, 1925388208843.699, 1679665317225.3303
92133521649.25464, 2845943476275.7734, 2482737003336.5464, 2155710761408.478
127198742612.58049, 3567554645152.6445, 3054192342354.511, 2590196936154.394
183968473414.32672, 4732069219820.469, 3846674353633.2397, 3126941491244.9546
