1.009999999999999964e+01 1.037500000000000000e+01 1.059999999999999964e+01 1.084999999999999964e+01 1.109999999999999964e+01 1.134999999999999964e+01 1.155000000000000071e+01 1.180000000000000071e+01 1.215000000000000036e+01
1.234999999999999964e+01 1.257499999999999929e+01 1.287500000000000000e+01 1.300000000000000000e+01 1.325000000000000000e+01 1.350000000000000000e+01 1.369999999999999929e+01 1.409999999999999964e+01 1.447499999999999964e+01
1.500000000000000000e+01 1.653999999999999915e+01 5.619999999999997442e+00 6.000000000000000000e+00 8.439999999999997726e+00 8.000000000000000000e+00 6.240000000000001990e+00 5.000000000000000000e+00 6.699999999999995737e+00
3.600000000000001421e+00 4.500000000000000000e+00 4.500000000000000000e+00 7.000000000000000000e+00 6.000000000000000000e+00 6.000000000000000000e+00 7.000000000000000000e+00 4.000000000000000000e+00 6.500000000000000000e+00
